CEMA 0907: Statistics in the Real World
…
`\(H_{a}\)`: `\(\mu_{1}\neq \mu_{2}\)` (or `\(<\)`, `\(>\)` depending on the context)

---

# Action vs. Romance Movies

The `movies_sample` dataset contains a sample of 200 *action* and *romance* movies, along with their title, year of release, and IMDB.com rating. 

```r
movies_sample
```

```
# A tibble: 200 x 4
   title                        year rating genre 
   <chr>                       <dbl>  <dbl> <chr> 
 1 Sinnui yauman III: Do Do Do  1991    7   Action
 2 Thunderpoint                 1998    7   Action
 3 Navajo Blues                 1996    3   Action
 4 Steel and Lace               1991    5.4 Action
 5 Joi gin a long               1999    6.6 Action
 6 Collectors, The              1999    3.8 Action
 7 Lawless Empire               1945    5.1 Action
 8 City on Fire                 1979    3.4 Action
 9 Lost at Sea                  1995    5.8 Action
10 Last of the Finest, The      1990    5.2 Action
# … with 190 more rows
```
…
