CEMA 0907: Statistics in the Real World
…
---

# Step 1: `specify()`

The `specify()` function is used primarily to choose which variables will be the focus of the statistical inference.
- This is done using the `response = ` argument:

```r
pennies_sample %>%
  specify(response = year)
```

```
Response: year (numeric)
# A tibble: 50 x 1
    year
   <dbl>
 1  2002
 2  1986
 3  2017
 4  1988
 5  2008
 6  1983
 7  2008
 8  1996
 9  2004
10  2000
# … with 40 more rows
```
…
