CEMA 0928: Statistics in the Real World
…
class: center, middle

# Bootstrapping

---

# `pennies_sample`

```r
pennies_sample
```

```
# A tibble: 50 x 2
      ID  year
   <int> <dbl>
 1     1  2002
 2     2  1986
 3     3  2017
 4     4  1988
 5     5  2008
 6     6  1983
 7     7  2008
 8     8  1996
 9     9  2004
10    10  2000
# … with 40 more rows
```
…
