CEMA 0907: Statistics in the Real World
…
---

# `count()`

You *could also* just use the `sort = TRUE` option in `count()` to sort in **descending order**:

```r
video_games %>%
  count(publisher, sort = TRUE)
```

```
## # A tibble: 13,954 x 2
##    publisher               n
##    <chr>               <int>
##  1 Big Fish Games        284
##  2 SEGA                  141
##  3 Strategy First        129
##  4 Ubisoft               123
##  5 Square Enix            95
##  6 NA                     95
##  7 Sekai Project          94
##  8 Choice of Games        92
##  9 Dagestan Technology    89
## 10 1C Entertainment       85
## # … with 13,944 more rows
```
…
> A combination of the inspection program and the type of inspection performed; See Data Dictionary for full list of expected values

---

# `separate()`

There are **a lot** of different `inspection_type` categories:

```r
nyc_restaurants %>%
  count(inspection_type, sort = TRUE) 
```

```
## # A tibble: 33 x 2
##    inspection_type                                        n
##    <chr>                                              <int>
##  1 Cycle Inspection / Initial Inspection             171657
##  2 Cycle Inspection / Re-inspection                   73207
##  3 Pre-permit (Operational) / Initial Inspection      20896
##  4 Pre-permit (Operational) / Re-inspection            9260
##  5 Administrative Miscellaneous / Initial Inspection   5513
##  6 Cycle Inspection / Reopening Inspection             3426
##  7 Pre-permit (Non-operational) / Initial Inspection   2936
##  8 Smoke-Free Air Act / Initial Inspection             2530
##  9 Administrative Miscellaneous / Re-inspection        1765
## 10 Trans Fat / Initial Inspection                      1747
## # … with 23 more rows
```
…
