CEMA 0928: Statistics in the Real World
…
---

# `arrange()`

If you use `arrange()` with a non-numerical variable, the variable is sorted alphabetically:

```r
diamonds %>%
  arrange(cut)
```

```
# A tibble: 53,940 x 10
   carat cut   color clarity depth table price     x     y     z
   <dbl> <ord> <ord> <ord>   <dbl> <dbl> <int> <dbl> <dbl> <dbl>
 1  0.22 Fair  E     VS2      65.1    61   337  3.87  3.78  2.49
 2  0.86 Fair  E     SI2      55.1    69  2757  6.45  6.33  3.52
 3  0.96 Fair  F     SI2      66.3    62  2759  6.27  5.95  4.07
 4  0.7  Fair  F     VS2      64.5    57  2762  5.57  5.53  3.58
 5  0.7  Fair  F     VS2      65.3    55  2762  5.63  5.58  3.66
 6  0.91 Fair  H     SI2      64.4    57  2763  6.11  6.09  3.93
 7  0.91 Fair  H     SI2      65.7    60  2763  6.03  5.99  3.95
 8  0.98 Fair  H     SI2      67.9    60  2777  6.05  5.97  4.08
 9  0.84 Fair  G     SI1      55.1    67  2782  6.39  6.2   3.47
10  1.01 Fair  E     I1       64.5    58  2788  6.29  6.21  4.03
# … with 53,930 more rows
```
…
Suppose we instead would like to sort `gapminder` by *year*, followed by *country*. 

---

# `arrange()` rows

```r
gapminder %>%
  arrange(year, country)
```

```
## # A tibble: 1,704 x 6
##    country     continent  year lifeExp      pop gdpPercap
##    <fct>       <fct>     <int>   <dbl>    <int>     <dbl>
##  1 Afghanistan Asia       1952    28.8  8425333      779.
##  2 Albania     Europe     1952    55.2  1282697     1601.
##  3 Algeria     Africa     1952    43.1  9279525     2449.
##  4 Angola      Africa     1952    30.0  4232095     3521.
##  5 Argentina   Americas   1952    62.5 17876956     5911.
##  6 Australia   Oceania    1952    69.1  8691212    10040.
##  7 Austria     Europe     1952    66.8  6927772     6137.
##  8 Bahrain     Asia       1952    50.9   120447     9867.
##  9 Bangladesh  Asia       1952    37.5 46886859      684.
## 10 Belgium     Europe     1952    68    8730405     8343.
## # … with 1,694 more rows
```
…
