CEMA 0907: Statistics in the Real World
…
---

# `group_by()` multiple variables

You are not limited to using `group_by()` with a single variable. 

- Before we do an example, let's examine a new data frame: `diamonds`, from the `ggplot2` package:

```r
diamonds
```

```
# A tibble: 53,940 x 10
   carat cut       color clarity depth table price     x     y     z
   <dbl> <ord>     <ord> <ord>   <dbl> <dbl> <int> <dbl> <dbl> <dbl>
 1 0.23  Ideal     E     SI2      61.5    55   326  3.95  3.98  2.43
 2 0.21  Premium   E     SI1      59.8    61   326  3.89  3.84  2.31
 3 0.23  Good      E     VS1      56.9    65   327  4.05  4.07  2.31
 4 0.290 Premium   I     VS2      62.4    58   334  4.2   4.23  2.63
 5 0.31  Good      J     SI2      63.3    58   335  4.34  4.35  2.75
 6 0.24  Very Good J     VVS2     62.8    57   336  3.94  3.96  2.48
 7 0.24  Very Good I     VVS1     62.3    57   336  3.95  3.98  2.47
 8 0.26  Very Good H     SI1      61.9    55   337  4.07  4.11  2.53
 9 0.22  Fair      E     VS2      65.1    61   337  3.87  3.78  2.49
10 0.23  Very Good H     VS1      59.4    61   338  4     4.05  2.39
# … with 53,930 more rows
```
…
# `group_by()`

Suppose we want to calculate the **median** `price`, aggregated by different `cut` and `color` of diamonds. 

- To `group_by()` multiple variables, you enter each variable name separated by a comma:

```r
diamonds_cut_color = diamonds %>%
  group_by(cut, color) %>%
  summarize(median_price = median(price, na.rm = TRUE))
diamonds_cut_color
```

```
## # A tibble: 35 x 3
## # Groups:   cut [5]
##    cut   color median_price
##    <ord> <ord>        <dbl>
##  1 Fair  D            3730 
##  2 Fair  E            2956 
##  3 Fair  F            3035 
##  4 Fair  G            3057 
##  5 Fair  H            3816 
##  6 Fair  I            3246 
##  7 Fair  J            3302 
##  8 Good  D            2728.
##  9 Good  E            2420 
## 10 Good  F            2647 
## # … with 25 more rows
```
…
